Data format • rsofun
…
The forcing data contains environmental variables commonly available
at fluxnet (reference) or ICOS atmospheric gas exchange measurement
locations or gathered from various gridded or re-analysis sources.
Forcing data are expected to be sequences of complete years (each
starting on January 1st and ending on december 31st), where leap days
are excluded (February 29th should not be present).

Each model has a specific forcing data resolution: - P-model: daily -
BiomeE (p-model): daily - BiomeE (gs leuning): hourly

Forcing data present in the demo drivers can be used as examples:

# Detailed look at the forcing data for the P-model
rsofun::p_model_drivers$forcing[[1]]
#> # A tibble: 2,190 × 13
#>    date        temp   vpd      ppfd netrad    patm  snow     rain  tmin
#>    <date>     <dbl> <dbl>     <dbl>  <dbl>   <dbl> <dbl>    <dbl> <dbl>
#>  1 2007-01-01 10.0  183.  0.000106    4.17  99944.     0  2.55e-5  7.12
#>  2 2007-01-02  8.42 417.  0.000192  -22.2   99992.     0  6.94e-6  6.79
#>  3 2007-01-03  9.13 566.  0.000187  -16.6  100075      0  0        4.21
#>  4 2007-01-04 10.1  375.  0.0000828 -16.8   99338.     0  0        3.96
#>  5 2007-01-05 10.7  508.  0.000183   -6.60  99419.     0  0        9.26
#>  6 2007-01-06 13.6  656.  0.000188  -11.2   99467.     0  0        8.96
#>  7 2007-01-07 13.7  567.  0.000155    7.32  99252.     0  0        9.55
#>  8 2007-01-08 10.7  273.  0.0000717  -3.00  98871.     0  0        7.04
#>  9 2007-01-09 16.4  682.  0.000188    9.94  99067.     0  0        9.46
#> 10 2007-01-10 11.4   26.0 0.0000277  -6.41  99444.     0  0        8.98
#> # ℹ 2,180 more rows
#> # ℹ 4 more variables: tmax <dbl>, fapar <dbl>, co2 <dbl>, ccov <dbl>
…
